id, descr
SRC,  "All TPs for a source are combined in a single query, irrespective of joins. This may give incomplete results"
JMAX, "Join-maximal partitions. This may violate the grounding assuption of EXCG and give incomplete results"
EXCG, "Exclusive groups, popularized by FedX (knBK-923) and also formalized by knBK-580 which names it standard distribution"
PRUD, "Prudent distribution, as presented in knBK-580: exclusive groups are partitioned inot maximally join-connected TP sets"
PRUDX,"An extension of the prudent distribution. Usually strategies in this category will replace join-connectivity with some other relation between triples"
EVEN, "Even distribution, as presented in knBK-580: Each TP is evaluated in isolation"
STAR, "Decompose into star-shaped queries. Each sub-query is a set of TPs which share a single subject"
GJV,  "Global Join Variables. Detect whether a variable may participate in cross-dataset joins. This is likely to yield larger subqueries than EXCG"
REDUC,"Reduction to a classical NP-complete problem"
MAP,  "Decomposes according to mappings from sources to a global ontology on which the query must be expressed"
