id,    desc
IMPSERIAL,   "The reasoning is assumed to be serial, since neither parallelization nor distribution are mentioned"
SERIAL,"The reasoning is serial and done on a single processing node." 
PARAL, "The reasoning is done at a single processing node, but this is done in parallel shared memory"
DISTR, "The reasoning is distributed among processing nodes that must communicate over a network"
