id,    descr
IMP,   "The entailment regime is not explictly stated by the paper"
RDFS,  "RDF Schema"
HORST, "ter Horst semantics"
WRDLOG,"Weakly-recursive Datalog"
OWLEL, "OWL 2/1 EL -- conjunction and existential class restrictions"
OWLQL, "OWL 2/1 QL -- first order rewritable"
OWLRL, "OWL 2/1 RL -- defined by rules"
OWLDL, "OWL 2/1 DL -- requires tableux"