id,    descr
PRED,  "Stores the set of predicates that occurr in each source"
CLASS, "Stores the set of classes that occurr in each source"
TP,    "Stores triple patterns known to (not) yield results in a source"
CARD,  "Extends another index category with cardinality information"
AMEM,  "Employs approximate membership functions for summarization"
STAR,  "Sources are indexed in terms of star-shaped "
MAP,   "There are mappings between source schemas and a ontology, which allows determining relevant sources"