id,tags
Y2Es-1,notquery
Y2Es-2,ir nofed
Y2Es-3,noquery benchmark
Y2Es-4,notquery notreason
Y2Es-5,notmany notquery
Y2Es-6,notquery notmany
Y2Es-7,notmany notquery
Y2Es-8,fed nonrdf
Y2Es-9,fed 
Y2Es-10,fed
Y2Es-11,noquery
Y2Es-12,fed
Y2Es-13,stream notmany
Y2Es-14,nodecomp
Y2Es-15,obda nodecomp
Y2Es-16,fed
Y2Es-17,proc
Y2Es-18,ir
Y2Es-19,ir notauton
Y2Es-20,notquery notreason notauton
Y2Es-21,fed reason
Y2Es-22,obda nodecomp
Y2Es-23,notfed
Y2Es-24,reason distr notmany
Y2Es-25,ir noquery
Y2Es-26,notfed
Y2Es-27,notmany
Y2Es-28,obda
Y2Es-29,obda noquery
Y2Es-30,obda noquery
Y2Es-31,obda nodecomp
Y2Es-32,notquery
Y2Es-33,proc
Y2Es-34,obda nodecomp
Y2Es-35,fed
Y2Es-36,notmany
Y2Es-37,noquery
Y2Es-38,ir
Y2Es-39,obda noquery
Y2Es-40,survey obda noquery
Y2Es-41,survey obda app
Y2Es-42,app notquery
Y2Es-43,notquery app
Y2Es-44,fed 
Y2Es-45,nodecomp
Y2Es-46,notmany
Y2Es-47,notmany
Y2Es-48,obda app noquery
Y2Es-49,obda ir
Y2Es-50,obda
Y2Es-51,reason fed
Y2Es-52,fed
Y2Es-53,obda noquery
Y2Es-54,fed reason
knBK-6,obda noquery
Y2Es-55,obda
knBK-103,obda app benchmark
Y2Es-56,obda app
Y2Es-57,noquery obda reason
Y2Es-58,obda
knBK-69,fed rdfplus
Y2Es-59,obda noquery
Y2Es-60,obda ir app
Y2Es-61,obda
Y2Es-62,distr nodecomp
knBK-1,noquery notmany notauton
Y2Es-63,notmany notquery
Y2Es-64,obda
knBK-2,fed
Y2Es-65,fed
Y2Es-66,fed
Y2Es-67,fed
knBK-3,fed rdfplus
Y2Es-68,fed 
Y2Es-69,fed
Y2Es-70,fed
Y2Es-71,fed reason
Y2Es-72,fed
Y2Es-73,obda 
Y2Es-74,fed
Y2Es-75,survey obda
Y2Es-76,fed app
Y2Es-77,distr 
Y2Es-78,obda reason
Y2Es-79,obda
Y2Es-80,proc
Y2Es-81,obda align
Y2Es-82,fed
Y2Es-83,obda
Y2Es-84,obda
Y2Es-85,fed rdfplus
Y2Es-86,notmany
Y2Es-87,obda 
Y2Es-88,obda noquery
Y2Es-89,proc
Y2Es-90,obda ir
Y2Es-91,obda noquery
Y2Es-92,fed
Y2Es-93,fed
Y2Es-94,fed
Y2Es-95,fed
Y2Es-96,obda
Y2Es-97,ir
Y2Es-98,obda noquery
Y2Es-99,obda
Y2Es-100,obda explain
Y2Es-101,notquery
Y2Es-102,obda noquery
Y2Es-103,obda app
Y2Es-104,obda noquery
Y2Es-105,notquery
knBK-7,obda benchmark
Y2Es-106,fed
Y2Es-107,distr
Y2Es-108,notmany
Y2Es-109,obda noquery
Y2Es-110,proc
Y2Es-111,notmany
Y2Es-112,ir 
Y2Es-113,proc
Y2Es-114,obda noquery
Y2Es-115,fed privacy
Y2Es-116,notquery notmany
Y2Es-117,proc
Y2Es-118,notmany
Y2Es-119,proc
Y2Es-120,stream reason
Y2Es-121,align noquery
Y2Es-122,noquery
Y2Es-123,notquery
Y2Es-124,notquery ir
knBK-4,app 
Y2Es-125,notmany
Y2Es-126,notmany
Y2Es-127,ir notmany app
Y2Es-128,proc
Y2Es-129,notquery
knBK-5,notfed notquery 
Y2Es-130,notquery notmany
knBK-8,notfed 
knBK-10,fed app
knBK-9,notauton notmany
knBK-11,obda unclear
knBK-12,fed nonrdf unclear
knBK-13,obda app
Y2Es-131,obda noquery
HteZ-1,noquery notmany
knBK-15,obda
knBK-16,obda reason
knBK-14,notmany
knBK-17,obda reason noquery
knBK-18,notauton notquery app
knBK-19,obda app
knBK-20,notreason notmany notauton noquery app
knBK-21,fed
knBK-22,obda
knBK-23,obda app
knBK-24,federation noquery
knBK-25,notreason notmany notauton
knBK-26,fed unclear
Y2Es-132,notmany
knBK-27,fed unclear
knBK-28,notmany
Y2Es-133,p2p
knBK-29,obda app
knBK-30,reason notmany
knBK-31,obda app
HteZ-2,notrdf app
knBK-33,noquery
knBK-32,obda
knBK-34,copy app
knBK-35,fed
knBK-36,notmany notauton
knBK-40,fed
knBK-174,noquery
knBK-42,fed benchmark
Y2Es-134,fed
Y2Es-135,fed
knBK-41,fed benchmark
HteZ-4,fed unclear
knBK-44,proc
HteZ-5,notmany 
knBK-47,fed rdfplus
knBK-60,obda noquery
knBK-45,fed app
knBK-50,fed
knBK-54,fed
knBK-76,obda noquery
knBK-49,fed
knBK-51,fed
HteZ-7,fed
knBK-57,proc
knBK-80,obda app
knBK-89,obda
knBK-56,fed
knBK-84,obda noquery
knBK-48,fed app
HteZ-6,app
knBK-83,obda nonrdf
knBK-85,obda benchmark
knBK-79,obda
Y2Es-136,notquery notmany
knBK-97,proc
knBK-98,proc
Y2Es-137,fed
knBK-88,obda
knBK-93,obda app
knBK-87,obda reason
knBK-82,obda
knBK-92,obda
Y2Es-138,obda noquery
knBK-94,obda noquery
knBK-75,obda
knBK-77,notfed
knBK-91,proc
knBK-100,obda benchmark
knBK-70,fed
knBK-61,fed
Y2Es-139,obda explain
knBK-68,fed
knBK-46,notmany notauton
knBK-95,obda app
knBK-104,obda copy
knBK-43,notauton 
knBK-78,notfed
knBK-71,app
Y2Es-140,proc
knBK-63,fed unclear
Y2Es-141,fed
knBK-96,obda app
knBK-101,obda benchmark
HteZ-9,noquery notreason 
knBK-99,obda benchmark
knBK-66,fed unclear
knBK-102,obda app benchmark
knBK-107,obda noquery
knBK-108,obda app benchmark
HteZ-8,notmany notauton
knBK-106,obda unclear
knBK-58,notauton copy notquery
knBK-109,obda notmany noquery
knBK-52,proc
knBK-53,proc
knBK-72,proc
knBK-73,copy
Y2Es-142,proc
knBK-64,proc
knBK-105,app
knBK-74,fed
knBK-81,notauton app
knBK-55,notauton notmany
knBK-62,notquery
knBK-110,proc
Y2Es-143,fed app
knBK-67,fed app
knBK-59,proc
knBK-86,proc 
knBK-111,obda reason
knBK-112,obda app
knBK-113,fed stream reason
Y2Es-144,notquery
knBK-114,notauton notquery
knBK-115,app notauton notquery
knBK-116,notquery notauton notmany
knBK-117,obda benchmark 
knBK-118,obda noquery
HteZ-10,app notmany
knBK-119,fed app
knBK-120,notauton notmany
knBK-121,obda
knBK-122,fed unclear
knBK-123,fed
HteZ-11,fed
knBK-124,fed
Y2Es-145,fed noquery
knBK-125,noquery app
knBK-126,noquery 
knBK-127,obda 
knBK-128,proc
knBK-129,obda
knBK-37,fed rdfplus
knBK-131,fed
knBK-38,fed
HteZ-3,noquery
knBK-132,obda app
knBK-130,notquery notauton
knBK-39,obda app
knBK-133,obda reason unclear
knBK-134,obda unclear
knBK-136,fed
knBK-138,obda noquery
knBK-139,obda noquery app
knBK-137,proc
knBK-140,notauton 
knBK-141,notauton notquery app
knBK-142,fed
knBK-143,fed rdfplus
knBK-144,proc
knBK-147,fed
knBK-148,obda
knBK-149,obda
knBK-145,notmany
knBK-146,notauton notmany
knBK-150,noquery app
knBK-151,noquery app
knBK-152,obda app
knBK-153,obda app
knBK-154,proc
knBK-155,fed
knBK-157,noquery
knBK-156,fed reason
knBK-158,notrdf
knBK-160,obda
knBK-159,fed
knBK-161,app noquery
knBK-162,fed 
knBK-163,obda noquery
knBK-164,proc
knBK-165,fed
knBK-166,notquery notauton 
knBK-167,notauton notreason 
knBK-168,fed app
knBK-169,obda
knBK-173,fed
knBK-171,fed
knBK-181,fed benchmark
knBK-172,fed
knBK-170,fed
knBK-200,proc
knBK-175,fed
knBK-178,fed rdfplus ext
knBK-177,fed app
knBK-186,obda fed app
HteZ-12,noquery notmany
knBK-180,proc
knBK-184,noquery
knBK-194,fed obda
knBK-188,fed rdfplus
knBK-179,fed 
knBK-182,fed
knBK-198,fed rdfplus
knBK-185,fed unclear
knBK-193,fed nonrdf
knBK-191,proc
knBK-187,fed
knBK-228,obda app
knBK-227,obda noquery
knBK-219,obda
knBK-190,fed
knBK-234,proc
knBK-203,proc
knBK-192,fed
knBK-196,fed stream app
knBK-216,obda
knBK-226,obda rdfplus
knBK-233,obda app
knBK-241,proc
knBK-217,obda app
knBK-176,fed app
knBK-231,proc
knBK-222,obda updates
knBK-230,obda
knBK-224,obda app
knBK-223,obda
knBK-220,obda 
knBK-232,obda noquery
knBK-201,notfed
knBK-250,proc
knBK-236,obda
knBK-237,notmany
knBK-247,obda app
knBK-229,obda noquery
knBK-215,obda unclear
knBK-209,obda
Y2Es-146,obda updates
knBK-243,obda noquery
knBK-214,obda
knBK-210,obda
knBK-251,obda app
knBK-235,obda
knBK-240,obda noquery
knBK-245,noquery
knBK-183,noquery
knBK-246,obda app
knBK-249,obda app
Y2Es-147,obda
knBK-242,obda
knBK-244,fed app
knBK-252,obda app
Y2Es-148,obda app
knBK-202,fed
knBK-204,fed ir
knBK-253,obda app
knBK-257,obda reason
knBK-254,obda stream noquery app
Y2Es-149,proc
knBK-259,obda
knBK-255,obda app
knBK-256,proc
knBK-248,ext
knBK-261,obda notreason app 
knBK-197,noquery
knBK-264,proc
knBK-258,obda noquery notreason 
knBK-195,fed unclear
knBK-266,obda app
knBK-260,noobda
knBK-189,proc
knBK-262,proc
knBK-263,proc
knBK-206,noquery app notreason
knBK-218,obda stream
Y2Es-150,app notquery
knBK-265,proc
knBK-267,obda noquery
knBK-211,notfed
knBK-208,fed app
knBK-268,obda noquery
HteZ-13,notmany
knBK-199,notauton notmany
knBK-213,fed unclear
knBK-205,notmany notauton
knBK-221,noquery
knBK-207,proc
knBK-212,fed app
knBK-225,proc
knBK-239,proc
knBK-269,fed nonrdf unclear
knBK-270,shard
knBK-272,fed unclear
knBK-271,fed unclear
knBK-273,obda unclear
knBK-274,notmany notquery
knBK-275,notauton notreason
knBK-276,notmany notquery notreason
knBK-277,obda unclear
knBK-278,obda app
knBK-279,fed app
knBK-280,obda unclear
knBK-281,fed ir
knBK-282,obda app
knBK-283,proc
knBK-284,fed unclear
knBK-285,noquery notreason
knBK-286,noobda
knBK-288,obda
knBK-287,notquery
knBK-289,fed
knBK-135,notquery
knBK-291,fed
knBK-290,notquery
knBK-292,notmany notauton
knBK-293,shard noquery
knBK-294,fed benchmark
knBK-295,notmany
knBK-296,obda reason
knBK-297,proc
knBK-298,obda reason rdfplus
HteZ-14,fed app
knBK-299,nofed
knBK-300,obda unclear
knBK-301,copy
knBK-302,nofed
knBK-303,obda app
knBK-304,obda noquery
knBK-305,fed app
knBK-307,fed reason app
knBK-306,fed app
knBK-308,obda reason
knBK-309,notmany
knBK-310,fed reason unclear
knBK-311,notmany notauton
knBK-312,fed
knBK-316,fed
knBK-317,noquery
knBK-313,notauton notmany
knBK-314,notmany
HteZ-15,noquery
knBK-315,notmany
knBK-318,notmany nofed
knBK-319,noquery notauton
knBK-320,notmany copy noquery
knBK-321,obda 
knBK-322,fed ir app
knBK-323,proc
knBK-331,fed 
knBK-327,fed benchmark
knBK-349,nofed noquery
knBK-334,fed
knBK-333,fed
knBK-330,fed
knBK-328,fed
HteZ-16,notmany noquery
knBK-326,fed
knBK-337,nofed
knBK-338,app
knBK-341,fed
knBK-324,noquery
knBK-335,proc
knBK-325,fed unclear
knBK-375,nofed benchmark
knBK-347,fed unclear
HteZ-17,notmany
knBK-332,fed benchmark
knBK-366,obda benchmark
knBK-355,obda
knBK-378,obda noquery
knBK-376,obda app
knBK-345,notauton nofed
knBK-385,proc
knBK-339,fed
HteZ-18,noquery
knBK-370,obda app noquery
Y2Es-151,fed
knBK-342,noquery
knBK-373,obda app noquery
knBK-382,obda
knBK-343,copy notauton
knBK-388,obda
knBK-377,obda app
knBK-379,obda nonrdf
knBK-344,fed unclear
knBK-389,obda noquery
HteZ-19,notmany
knBK-380,obda noquery
knBK-381,obda noquery
knBK-395,noobda
knBK-387,obda unclear
knBK-351,fed unclear
knBK-384,obda noquery
knBK-391,obda noquery
knBK-392,obda rdfplus
knBK-340,proc
HteZ-20,noquery
knBK-383,obda
Y2Es-152,obda
knBK-393,obda nonrdf
knBK-359,noquery
knBK-399,obda noquery
knBK-396,proc
knBK-386,obda noquery
knBK-346,proc
knBK-336,copy
knBK-364,copy noquery
knBK-401,obda
knBK-400,proc
knBK-405,obda unclear
knBK-348,fed app unclear
knBK-398,obda app
knBK-402,obda notreason app
knBK-329,app notauton
knBK-404,noobda
knBK-361,nofed noquery
knBK-358,noquery app
HteZ-21,nofed ldq
knBK-397,obda
knBK-356,ldq nofed
knBK-410,obda reason 
knBK-403,obda
knBK-408,obda unclear
knBK-411,obda
knBK-360,fed
knBK-412,proc
knBK-407,obda noquery
knBK-409,obda app
knBK-368,nofed app
knBK-350,notmany
knBK-406,obda noquery
knBK-352,nofed
knBK-413,obda unclear
knBK-416,obda stream unclear
knBK-417,obda noquery
knBK-414,obda noquery app
knBK-362,shard
knBK-415,obda benchmark
knBK-365,stream fed reason
HteZ-22,nofed
knBK-418,obda benchmark
knBK-371,noquery
knBK-419,proc
knBK-394,notfed
knBK-353,noquery
knBK-357,notmany
knBK-354,proc
knBK-363,proc
knBK-367,proc
knBK-372,proc
knBK-369,proc
knBK-374,proc
HteZ-23,notmany
knBK-420,noquery
knBK-423,fed reason rdfplus
knBK-421,notauton noquery
knBK-422,noquery
knBK-424,fed unclear
knBK-425,obda app
knBK-426,noquery
knBK-427,noquery reason
knBK-428,fed
knBK-429,obda reason 
knBK-430,proc
knBK-431,fed
knBK-432,obda app
knBK-433,obda rdfplus
knBK-434,obda reason
knBK-435,obda noquery
knBK-436,noobda
knBK-437,obda app
knBK-438,obda unclear
knBK-439,noquery notauton
knBK-440,noobda
knBK-441,ldq notreason
knBK-442,fed noquery
knBK-443,proc
knBK-444,noquery notmany
knBK-445,ext
knBK-446,obda
knBK-447,obda unclear
knBK-475,obda nonrdf
knBK-448,obda copy
knBK-449,obda noquery
knBK-451,obda reason
knBK-450,noquery copy
knBK-464,copy
knBK-452,obda copy
knBK-480,copy
knBK-459,fed
knBK-453,proc
knBK-479,fed noquery app
knBK-476,fed noquery app
knBK-455,fed
HteZ-25,noquery
knBK-460,fed
HteZ-24,notreason noquery
knBK-457,fed
knBK-463,ldq
knBK-472,proc
knBK-458,fed noquery
knBK-467,noquery
knBK-462,fed
knBK-471,fed
knBK-468,noquery
knBK-465,proc
knBK-508,obda
knBK-470,fed ir
knBK-503,obda
knBK-485,fed
knBK-496,obda noquery
knBK-511,obda noquery
knBK-504,obda
knBK-510,obda noquery
knBK-481,fed benchmark
knBK-533,obda noquery
knBK-505,obda rdfplus
knBK-509,obda noquery
knBK-514,obda app
knBK-506,obda unclear
knBK-507,obda benchmark
knBK-456,noquery app
knBK-484,fed
HteZ-26,notmany notreason
knBK-531,obda
knBK-454,proc
knBK-474,proc
knBK-516,obda updates unclear
knBK-523,obda unclear
knBK-521,obda benchmark
knBK-513,obda benchmark
knBK-477,noquery
knBK-519,obda app
knBK-532,proc
knBK-518,obda stream
knBK-515,obda unclear
knBK-528,obda unclear
knBK-517,obda stream
knBK-499,proc
knBK-534,obda
knBK-530,obda app
knBK-520,obda unclear
knBK-486,noquery
knBK-512,obda noquery
knBK-525,obda noquery
knBK-529,obda
knBK-469,notmany
knBK-526,obda noquery
knBK-524,obda app
knBK-501,notmany notfed
knBK-522,obda noquery
knBK-527,obda benchmark
knBK-478,fed noquery
knBK-466,copy notauton
HteZ-27,notmany
knBK-537,obda noquery
knBK-495,fed reason
knBK-536,obda noquery
knBK-490,noquery updates
knBK-461,copy
knBK-535,obda benchmark
knBK-494,noquery
knBK-538,obda app
knBK-491,notmany notauton
knBK-540,obda app
knBK-473,notmany
knBK-498,noquery
knBK-488,notfed notreason
knBK-500,noquery
knBK-487,fed unclear
knBK-492,copy updates
knBK-542,proc
knBK-539,proc
knBK-541,copy updates
knBK-493,noquery notmany
knBK-482,notmany
knBK-483,notauton
knBK-543,proc
knBK-497,notreason ir notmany
knBK-489,notauton
knBK-544,fed benchmark
knBK-545,fed
knBK-546,fed unclear
knBK-547,copy noquery
knBK-548,obda  copy notreason 
knBK-549,noquery
knBK-550,notmany notauton
knBK-552,obda notfed notreason
knBK-551,notauton noquery
HteZ-28,fed
knBK-553,notquery notauton
knBK-554,fed
knBK-557,fed reason 
knBK-560,fed unclear
knBK-559,fed
HteZ-29,fed noquery
knBK-558,fed
knBK-561,fed 
knBK-562,fed
knBK-573,fed noquery
knBK-565,proc
knBK-574,fed
knBK-570,fed
knBK-569,fed
knBK-576,noquery
knBK-567,fed
knBK-575,fed updates
knBK-589,proc
knBK-566,proc
knBK-556,copy
knBK-577,fed
knBK-581,fed noobda noquery 
HteZ-30,noquery
knBK-610,obda noquery
knBK-621,proc
knBK-614,obda benchmark
knBK-612,obda stream reason 
knBK-580,fed
HteZ-32,notmany noquery
knBK-582,notmany app
knBK-613,obda reason dup
HteZ-31,proc
knBK-634,noobda
knBK-611,obda noquery
knBK-600,notfed
knBK-628,obda benchmark
knBK-555,noquery
knBK-615,obda noquery
knBK-617,obda noquery
knBK-579,fed
knBK-618,obda noquery
knBK-586,fed
knBK-623,obda 
knBK-622,obda reason
knBK-619,obda stream
knBK-638,proc
knBK-624,obda noquery
knBK-629,obda
knBK-631,obda
knBK-606,obda
knBK-632,obda noquery
knBK-608,obda unclear
knBK-645,noobda noquery
knBK-644,noobda noquery
knBK-633,obda noquery
knBK-647,obda app
knBK-625,obda unclear
knBK-626,noobda
knBK-635,noquery
knBK-643,obda unclear
knBK-650,proc
knBK-642,obda rdfplus
knBK-639,noobda
knBK-649,obda unclear
knBK-630,proc
knBK-596,fed unclear
knBK-568,proc
knBK-637,obda app
knBK-646,proc
knBK-595,ldq
knBK-591,nofed noquery
knBK-601,fed
knBK-563,noquery
knBK-651,noobda
knBK-648,noobda
knBK-640,noobda noquery
knBK-598,fed unclear
knBK-583,proc
knBK-593,obda nonrdf unclear
knBK-653,obda fed noquery
knBK-564,notauton
knBK-592,notrdf
knBK-572,notauton
knBK-652,obda unclear
knBK-607,notmany notfed
knBK-602,fed unclear
knBK-594,obda
knBK-578,notauton
knBK-609,nofed noquery
knBK-599,fed
knBK-654,obda noquery
knBK-604,fed unclear
knBK-597,copy noquery app
knBK-587,nordf notauton
knBK-605,fed
knBK-585,notauton noquery
knBK-588,notauton notquery
knBK-603,ir
knBK-666,fed unclear
knBK-660,fed obda reason
knBK-664,fed
knBK-659,fed
knBK-658,fed
knBK-662,fed rdfplus
knBK-663,fed nonrdf
knBK-656,notmany
knBK-665,fed app
knBK-657,copy noquery
knBK-675,obda noquery
knBK-672,obda unclear
knBK-676,noquery
knBK-673,obda
knBK-674,noobda noquery
knBK-677,obda benchmark
knBK-670,noquery
knBK-661,notmany copy
knBK-683,obda noquery
knBK-681,proc
knBK-680,obda noquery
knBK-682,noobda noquery
knBK-684,obda app
knBK-692,copy
knBK-679,noobda noquery
knBK-678,noobda noquery
knBK-686,obda
knBK-685,noquery
knBK-687,noquery
knBK-688,obda app
knBK-689,obda
knBK-668,noquery
knBK-691,obda 
knBK-667,fed obda reason
knBK-690,obda
knBK-671,notfed notmany
knBK-655,notmany
HteZ-33,notmany
knBK-693,obda reason unclear
knBK-669,notmany
knBK-694,noobda
knBK-695,notmany
knBK-696,fed
knBK-697,fed
knBK-698,noquery
knBK-699,obda app
knBK-700,notreason nofed
knBK-701,notmany
knBK-702,fed app
knBK-703,obda
knBK-705,notfed
knBK-704,proc
knBK-706,fed app
knBK-707,fed unclear
knBK-708,obda
knBK-709,proc
knBK-710,obda
knBK-711,obda unclear
knBK-712,notmany
knBK-713,noquery
knBK-714,fed noquery
knBK-715,ir notfed
knBK-716,fed 
HteZ-34,updates noquery
knBK-717,fed obda
knBK-718,notmany noquery
knBK-719,fed app
knBK-721,obda noquery
knBK-720,obda app
knBK-722,obda
knBK-723,fed shard
knBK-726,obda ext
knBK-727,proc
knBK-725,notmany
knBK-729,obda noquery
knBK-728,fed app
knBK-730,notmany
knBK-731,fed noquery
knBK-732,obda nonrdf
knBK-733,obda app
knBK-734,notauton notmany
knBK-735,fed
HteZ-35,fed noquery
knBK-736,obda
knBK-737,obda noquery
HteZ-36,ir
knBK-738,fed app
knBK-739,notauton notmany notquery
knBK-740,proc
knBK-741,obda noquery
knBK-742,notauton app
knBK-743,notauton notmany
knBK-747,fed
knBK-744,fed noquery
knBK-748,fed 
knBK-746,fed app
knBK-745,fed app
knBK-749,fed
knBK-760,obda noquery
knBK-762,obda noquery
knBK-761,obda unclear
knBK-750,fed noquery
knBK-756,proc
knBK-763,obda noquery
knBK-764,obda reason 
knBK-754,fed app
knBK-770,obda stream noquery
knBK-765,obda app
knBK-753,fed noquery
knBK-751,fed reason
knBK-768,obda stream
knBK-767,obda noquery
knBK-759,obda
knBK-766,obda ir
knBK-755,fed app
knBK-774,proc
knBK-752,fed unclear
knBK-772,obda unclear
knBK-773,proc
knBK-775,obda
knBK-779,proc
knBK-777,obda app
knBK-778,obda
knBK-776,proc
knBK-780,obda reason
knBK-782,proc
knBK-781,obda
knBK-783,obda noquery
knBK-758,notmany
knBK-757,proc
knBK-784,obda
knBK-724,notfed
knBK-769,notmany
knBK-785,fed noquery
knBK-787,fed app
knBK-788,fed unclear
knBK-786,fed app noquery
knBK-789,fed
knBK-790,fed
knBK-791,obda app
knBK-792,fed
knBK-793,obda noquery
knBK-794,notmany
knBK-796,fed
knBK-795,fed
knBK-797,fed
knBK-807,obda reason 
knBK-800,proc
HteZ-37,fed unclear
knBK-810,obda  ext
HteZ-38,notmany
knBK-801,fed reason
knBK-815,obda
knBK-817,obda
knBK-811,obda
knBK-813,proc
knBK-818,obda noquery
knBK-814,noobda reason
knBK-816,obda noquery
knBK-821,obda app
knBK-820,obda unclear
knBK-804,fed
knBK-823,obda app
knBK-822,noobda reason
knBK-806,notmany
knBK-809,notfed
knBK-824,obda app
knBK-799,copy noquery
knBK-798,noquery notauton
knBK-803,fed
knBK-802,noquery
knBK-805,fed noquery
knBK-808,fed app
knBK-825,notmany noquery
knBK-826,notmany
knBK-827,fed benchmark
knBK-828,fed benchmark
knBK-829,obda noquery
knBK-830,fed
knBK-832,obda reason
knBK-831,obda benchmark
knBK-833,notquery copy
knBK-834,fed unclear
knBK-835,noobda
knBK-836,noquery
knBK-837,fed
knBK-838,proc
knBK-839,obda reason unclear
knBK-840,notquery
knBK-842,notmany
knBK-841,notmany
knBK-844,obda reason unclear
knBK-843,fed unclear
knBK-845,fed app
knBK-846,notmany notauton
knBK-848,obda
knBK-849,noobda
knBK-847,notfed notauton
knBK-850,notauton
knBK-851,fed
knBK-852,notquery copy
knBK-853,notfed
knBK-854,notquery
knBK-855,fed app
knBK-856,copy app
knBK-857,fed app
knBK-858,notmany ir
knBK-859,notmany
knBK-860,fed
knBK-861,notquery
knBK-862,notquery
knBK-864,nofed
knBK-863,fed unclear
knBK-881,obda
knBK-882,obda reason
knBK-866,obda fed
knBK-867,fed app
knBK-812,obda noquery
knBK-876,obda
knBK-869,fed benchmark
knBK-878,obda
knBK-885,obda app
knBK-888,obda app
knBK-884,proc
knBK-883,obda benchmark
knBK-886,noobda reason
knBK-889,proc
knBK-868,notfed
knBK-892,obda benchmark
knBK-887,proc
knBK-819,obda reason 
knBK-890,obda reason unclear
knBK-865,fed app
knBK-891,obda reason unclear
knBK-870,noquery
knBK-874,notfed notmany
knBK-872,fed
knBK-871,notmany notfed
knBK-873,fed
knBK-877,fed
knBK-880,notfed
knBK-879,notfed
knBK-875,notmany
knBK-894,fed 
knBK-895,obda
knBK-897,fed
knBK-908,obda reason
knBK-898,fed app
knBK-902,notmany
knBK-911,obda
knBK-910,obda
knBK-912,obda unclear
knBK-909,obda
knBK-899,notfed
knBK-913,obda
knBK-914,obda reason unclear
knBK-915,obda reason unclear
knBK-916,obda unclear
knBK-917,proc
knBK-896,notmany notauton
knBK-918,obda reason unclear
knBK-906,proc
knBK-907,fed
knBK-900,notfed
knBK-903,fed unclear
knBK-901,notauton
knBK-905,notfed
HteZ-39,ir notfed
knBK-904,notmany
knBK-919,copy
knBK-920,fed
HteZ-40,app notquery
knBK-921,obda noquery
knBK-922,fed
knBK-923,fed
knBK-925,obda noquery
knBK-924,fed benchmark
knBK-926,obda unclear
knBK-927,fed unclear
knBK-928,fed noquery
knBK-929,fed
knBK-930,fed
knBK-931,fed
knBK-932,fed unclear
knBK-933,noquery
knBK-935,obda 
knBK-934,noquery
knBK-937,fed
knBK-936,notquery
knBK-938,notquery
knBK-939,notquery
knBK-940,shard
knBK-941,fed reason
knBK-942,obda
knBK-943,fed ext
knBK-944,obda
knBK-945,notquery
knBK-946,notfed
knBK-947,obda ir
knBK-948,notquery
knBK-949,fed
knBK-950,obda 
knBK-953,fed
knBK-954,proc
knBK-955,fed
knBK-958,obda noquery
knBK-959,obda reason
knBK-952,fed unclear
knBK-956,fed app
knBK-951,fed unclear
knBK-957,fed
knBK-960,fed ext
knBK-961,notfed notmany
knBK-962,noquery
knBK-963,fed
knBK-964,fed
knBK-965,noquery
knBK-966,fed unclear
knBK-967,fed
knBK-970,fed benchmark
knBK-969,obda
knBK-972,fed
knBK-980,obda noquery
knBK-971,reason fed noquery
HteZ-41,shard
knBK-977,obda
knBK-968,fed app
knBK-973,noquery
knBK-981,obda benchmark
knBK-982,obda reason
knBK-976,obda
knBK-978,notfed
knBK-984,obda noquery
knBK-986,proc
knBK-979,fed updates
knBK-985,obda noquery updates
knBK-974,notfed ir
knBK-987,proc
knBK-975,notauton
knBK-989,notmany
knBK-990,fed benchmark
knBK-991,proc
knBK-992,obda unclear
knBK-994,obda reason
knBK-993,notmany
knBK-995,obda noquery
HteZ-42,notmany notquery
knBK-996,obda unclear
knBK-997,notmany notfed
knBK-998,notmany
knBK-999,fed rdfplus
knBK-1000,fed ir
knBK-1001,notmany notfed
HteZ-43,notmany notauton
knBK-1002,notmany
knBK-1003,fed
knBK-1004,notfed
knBK-1005,notfed
knBK-1006,notquery notreason app
knBK-1008,obda ir
knBK-1009,proc
knBK-1007,notmany
knBK-1010,fed unclear
knBK-1011,obda noquery
knBK-1012,notquery
knBK-1013,obda
knBK-1014,notmany
knBK-1015,obda noquery
knBK-1016,noquery
knBK-1017,fed
knBK-1018,notquery
knBK-1019,notmany
knBK-1020,notfed notquery
knBK-1021,copy
knBK-1023,obda unclear
knBK-983,obda
knBK-1025,obda unclear
knBK-1022,fed unclear
knBK-1024,proc
knBK-1026,noquery app
knBK-1027,fed app
knBK-1032,ldq
knBK-1038,obda 
knBK-1036,obda reason
knBK-1029,copy
knBK-1031,fed app
knBK-1028,shard
knBK-1040,obda app
knBK-1034,obda ir
knBK-1042,obda noquery
knBK-1041,proc
knBK-1050,proc
knBK-1045,obda
knBK-1043,obda noquery
knBK-1046,obda ir
knBK-1047,obda app
knBK-1048,obda noquery
knBK-1049,noobda
knBK-1030,fed reason noquery
knBK-1037,fed nonrdf
knBK-1033,ir
knBK-1044,fed nonrdf
knBK-1051,obda
knBK-1039,fed app
knBK-1052,notmany
knBK-1053,fed app
knBK-1054,obda noquery
knBK-1055,fed rdfplus
knBK-1056,fed
knBK-1057,fed app
knBK-1058,proc
knBK-1059,fed
knBK-1060,fed reason unclear
knBK-1061,fed
knBK-1062,fed unclear
knBK-1063,notmany
knBK-1064,noquery notreason notauton
knBK-1065,fed unclear
knBK-1066,notmany
knBK-1068,nofed
knBK-1067,fed app
knBK-1069,obda
knBK-1070,notmany
knBK-1071,obda 
knBK-1074,notmany
knBK-1035,notmany
knBK-1072,notquery notmany
knBK-1073,fed ir
knBK-1075,obda noquery explain
knBK-1078,notmany notfed
knBK-1079,obda 
knBK-1077,proc
knBK-1076,notmany
knBK-1080,notmany
HteZ-44,fed
HteZ-45,fed
knBK-1082,fed reason
knBK-1084,fed reason
knBK-1089,fed
knBK-1081,distr
knBK-1086,fed
knBK-1087,notfed
knBK-1085,notquery
knBK-1092,obda app
knBK-1083,notquery
knBK-1093,obda unclear
knBK-1088,notfed
knBK-1090,fed
HteZ-46,notmany
knBK-1091,fed unclear
knBK-1094,notmany notauton
knBK-1096,noquery
knBK-1095,fed noquery
knBK-1097,fed reason
knBK-1098,notmany
knBK-1099,obda 
knBK-1101,obda 
knBK-1102,fed
Y2Es-153,ir notmany
knBK-1103,notmany notfed
knBK-1104,fed 
knBK-1105,ir
knBK-1106,notquery
knBK-1107,notquery
knBK-1108,fed reason
knBK-1109,notquery
knBK-1110,notquery
knBK-1111,notfed
knBK-1112,notmany
knBK-1115,obda reason
knBK-1113,fed unclear
knBK-1114,fed
knBK-1125,fed 
knBK-1127,obda
knBK-1117,ir
knBK-1136,proc
knBK-1116,obda unclear
knBK-1138,obda ir
knBK-1137,obda reason
knBK-1119,noquery
HteZ-48,noquery
knBK-1135,obda 
knBK-1133,proc
HteZ-47,proc
knBK-1139,obda unclear
knBK-1141,obda
knBK-1142,obda
knBK-1140,obda noquery
knBK-1124,notmany
knBK-1118,fed noquery
knBK-1123,obda noquery
knBK-1121,fed distr copy
knBK-1126,proc
knBK-1132,notmany
knBK-1120,ir
knBK-1129,fed unclear
knBK-1134,proc
knBK-1122,noquery
knBK-1130,fed noquery
knBK-1143,obda unclear
HteZ-49,notquery
knBK-1144,obda
knBK-1145,notfed
knBK-1146,fed unclear
knBK-1147,notquery
knBK-1148,notquery
knBK-1149,fed app
knBK-1100,notquery
knBK-1151,proc
knBK-1150,notquery
knBK-1152,notquery
knBK-1153,obda unclear
knBK-1154,notfed notmany
knBK-1155,notmany
knBK-1160,obda
knBK-1163,obda reason noquery
knBK-1156,fed unclear
knBK-1157,proc
knBK-1164,obda unclear
knBK-1159,obda
knBK-1162,obda
knBK-1161,fed app
knBK-1165,notquery
knBK-1166,notquery
knBK-1167,fed app
HteZ-50,notquery
knBK-1170,notfed notmany
knBK-1168,notfed distr
knBK-1169,fed app
knBK-1172,notfed notmany
knBK-1171,proc
knBK-1174,obda app
knBK-1181,obda
knBK-1176,notmany
knBK-1175,notmany
knBK-1173,obda
knBK-1177,fed
knBK-1180,proc
knBK-1179,proc
knBK-1178,notauton notquery
knBK-1182,reason noquery
knBK-1185,proc
knBK-1186,obda
knBK-1183,proc
knBK-1184,notmany notfed
knBK-1187,obda
knBK-1188,fed
knBK-1189,notfed
knBK-1190,notmany notfed
knBK-1191,obda unclear
knBK-1192,notquery
knBK-1193,notfed
knBK-1194,notfed
knBK-1195,notmany
Y2Es-154,notquery
knBK-1196,notrdf
knBK-1197,proc
knBK-1198,distr
HteZ-51,notquery
knBK-1199,fed unclear
knBK-1206,obda unclear
knBK-1200,obda
knBK-1202,noquery
knBK-1201,ir
knBK-1204,notquery
knBK-1203,obda
knBK-1205,notquery
knBK-1207,notmany
knBK-1208,ir
knBK-1209,obda unclear ext
knBK-1210,obda
knBK-1211,ir
knBK-1212,notquery
knBK-1213,notquery
knBK-1214,notquery
knBK-1215,proc
knBK-1216,obda
knBK-1217,fed reason
knBK-1218,fed
knBK-1219,fed rdfplus
knBK-1220,notquery
knBK-1221,copy
knBK-1222,fed unclear
knBK-1224,obda fed
knBK-1223,fed
knBK-1225,ir notmany notfed
knBK-1226,copy
knBK-1227,notfed notquery
knBK-1229,proc
knBK-1228,proc
knBK-1231,ir
knBK-1232,obda
knBK-1230,fed
knBK-1233,proc
knBK-1234,fed
knBK-1235,proc
HteZ-52,fed unclear
knBK-1236,fed unclear
knBK-1238,obda
knBK-1237,notrdf
HteZ-53,proc
knBK-1239,fed unclear
knBK-1240,ir
HteZ-54,proc
Y2Es-155,proc
knBK-1241,copy notauton
