id,                             venue,     publi,  year, month, citg, cits, qualis, gsh5, gsh5med,    ipf,  sjr, sjrq
Y2Es-72,                         DEXA,  Springer,  2019,   sep,    8,    2,     B1,   11,      13,     NA,   NA,   NA
Y2Es-16,                         DCAI,  Springer,  2019,   jun,    0,    0,     B2,   13,      22,     NA,   NA,   NA
Y2Es-35,                         KCAP,       ACM,  2019,   nov,    1,    0,     NA,   NA,      NA,     NA,   NA,   NA
Y2Es-44,              BigDataCongress,      IEEE,  2019,   jul,    0,    0,     B1,   25,      43,     NA,   NA,   NA
Y2Es-70,Cluster Computing (1386-7857),  Springer,  2019,   nov,    0,    0,     B1,   NA,      NA,  2.625, 0,34,   Q2
Y2Es-74,                          SAC,       ACM,  2019,   apr,    0,    0,     A1,   28,      36,     NA,   NA,   NA
Y2Es-92,                         ISWC,  Springer,  2019,   oct,    7,    1,     A1,   37,      59,     NA,   NA,   NA
Y2Es-134,                        VLDB,       ACM,  2017,   dec,   10,    3,      C,   NA,      NA,  3.557, 0.76,   NA
Y2Es-135,           TLDKS (1869-1994),  Springer,  2018,   nov,   12,    2,     B5,   NA       NA,     NA,   NA,   NA
knBK-3,       IEEE Access (2169-3536),      IEEE,  2019,   jan,    0,    0,     B3,   57,      89,  4.187, 0.55,   Q1
knBK-21,    Web Semantics (1570-8268),  Elsevier,  2018,   aug,    0,    0,     A2,   31,      45,  3.725, 0.79,   Q1
knBK-40,           IJSWIS (1552-6283),       IGI,  2016,   jul,    7,    5,     NA,   NA,      NA,  1.310, 0.41,   Q2
HteZ-7,                     SEMANTiCS,  Elsevier,  2018,   oct,    2,    1,     NA,   16,      26,     NA,   NA,   NA
knBK-49,                       DASFAA,  Springer,  2018,   may,    1,    0,     NA,   16,      19,     NA,   NA,   NA
knBK-54,                         DEXA,  Springer,  2018,   aug,    4,    3,     B1,   12,      15,     NA,   NA,   NA
knBK-68,                         ISWC,  Springer,  2018,   sep,    9,    0,     A2,   41,      69,     NA,   NA,   NA
HteZ-11,                    SEMANTiCS,       ACM,  2017,   sep,    0,    0,     NA,   16,      26,     NA,   NA,   NA
knBK-162,BioMed Semantics (2041-1480),    BioMed,  2017,   mar,   15,    9,     NA,   26,      34,  1.724, 0.95,   Q1
knBK-171,   Web Semantics (1570-8268),  Elsevier,  2016,   jan,   14,    9,     A2,   31,      45,  3.725, 0.79,   Q1 
knBK-175,                        ESWC,  Springer,  2017,   nov,    1,    1,     A1,   30,      44,     NA,   NA,   NA
knBK-179,                        ISWC,  Springer,  2017,   oct,   10,    5,     A2,   41,      69,     NA,   NA,   NA
knBK-202,             SWJ (2210-4968),       IOS,  2017,   aug,    5,    4,     NA,   32,      58,  5.015, 0.91,   Q1
knBK-316,   Web Semantics (1570-8268),  Elsevier,  2016,   mar,  132,   83,     A2,   31,      45,  3.725, 0.79,   Q1
knBK-331,                    PROFILES,      CEUR,  2016,   may,    4,    1,     NA,   NA,      NA,     NA,   NA,   NA
knBK-334,                        HIMI,  Springer,  2016,   jun,    0,    0,     NA,   NA,      NA,     NA,   NA,   NA
knBK-333,           TLDKS (1869-1994),  Springer,  2016,   feb,   12,    3,     NA,   NA,      NA,     NA,   NA,   NA
knBK-428,                   SEMANTiCS,       ACM,  2015,   sep,   33,   10,     NA,   16,      26,     NA,   NA,   NA
knBK-459,                        SSWS,      CEUR,  2015,   oct,    1,    0,     NA,   NA,      NA,     NA,   NA,   NA
knBK-455,                        ISWC,  Springer,  2015,   oct,   28,   12,     A2,   41,      69,     NA,   NA,   NA
knBK-460,                        ESWC,  Springer,  2015,   apr,    8,    1,     A1,   30,      44,     NA,   NA,   NA
HteZ-28,                       ICNBIS,      IEEE,  2014,   jan,    0,    0,     NA,   13,      16,     NA,   NA,   NA
knBK-562,                        ESWC,  Springer,  2014,   may,   90,   45,     A1,   30,      44,     NA,   NA,   NA
knBK-567,                     ICADIWT,      IEEE,  2014,   may,    1,    1,     NA,   NA,      NA,     NA,   NA,   NA
knBK-574,                      ICA3PP,  Springer,  2014,   aug,    1,    3,     B1,   12,      13,     NA,   NA,   NA
knBK-580,             SWJ (2210-4968),       IOS,  2015,   jun,    3,    3,     NA,   32,      58,  5.015, 0.91,   Q1
knBK-599,                      MILCOM,      IEEE,  2014,   oct,    7,    5,     NA,   20,      25,     NA,   NA,   NA
knBK-658,                        ISWC,  Springer,  2013,   oct,   74,   34,     A2,   41,      69,     NA,   NA,   NA
knBK-660,                        IWDL,      CEUR,  2013,   jul,    9,    5,     NA,   18,      26,     NA,   NA,   NA
knBK-716,                        DEXA,  Springer,  2013,   aug,    4,    1,     B1,   12,      15,     NA,   NA,   NA
knBK-749,                       STIDS,      CEUR,  2013,   nov,    1,    0,     NA,   NA,      NA,     NA,   NA,   NA
knBK-789,            TITB (1089-7771),      IEEE,  2012,   aug,    6,    3,     A1,   NA,      NA,     NA,   NA,   NA
HteZ-37,                          OTM,  Springer,  2012,   sep,   31,   12,     NA,   17,      23,     NA,   NA,   NA
knBK-796,                        COLD,      CEUR,  2012,   nov,   32,   10,     NA,   NA,      NA,     NA,   NA,   NA
knBK-797,                        LDOW,      CEUR,  2012,   apr,   50,    7,     NA,   NA,      NA,     NA,   NA,   NA
knBK-801,                       WIIAT,      IEEE,  2012,   may,   15,    7,     B1,   NA,      NA,     NA,   NA,   NA
knBK-830,                        AAAI,      AAAI,  2012,   jul,   21,    9,     A1,   69,     101,     NA,   NA,   NA
knBK-872,                        ICCS,  Elsevier,  2012,   jun,    4,    1,     A1,   NA,      NA,     NA,   NA,   NA
knBK-897,                        ISKE,  Springer,  2011,   dec,    0,    0,     NA,    5,       5,     NA,   NA,   NA
knBK-920,                         OTM,  Springer,  2011,   oct,   26,   18,     NA,   17,      23,     NA,   NA,   NA
knBK-923,                        ISWC,  Springer,  2011,   oct,  287,  149,     A2,   41,      69,     NA,   NA,   NA
knBK-953,                        COLD,      CEUR,  2011,   oct,  215,   39,     NA,   NA,      NA,     NA,   NA,   NA
knBK-964,                       WIIAT,      IEEE,  2010,   nov,   10,    6,     B1,   NA,      NA,     NA,   NA,   NA
knBK-1003,                      NOMSW,      IEEE,  2010,   apr,    0,    0,     A2,   24,      37,     NA,   NA,   NA
knBK-1055,                      IDEAS,       ACM,  2009,   sep,    8,    2,     B2,   12,      20,     NA,   NA,   NA
knBK-1062,                        SCI,  Springer,  2009,   jan,  525,  128,     NA,   NA,      NA,     NA,   NA,   NA
knBK-1086,                      iiWAS,       ACM,  2008,   nov,   10,    7,     B1,   14,      15,     NA,   NA,   NA
knBK-1104,                       ESWC,  Springer,  2008,   jun,  536,  243,     A1,   30,      44,     NA,   NA,   NA
