id,                           fcontr,   fout,  fint,        fsidx,     fssel, fdeco,   flang,      fplang,                  fplat, fcode, fexper, fbench
Y2Es-72,  sidx ssel decomp plan exec,    res, table,         star,      deco,  star,  sparql,      python,                     NA,  true,   true, LSLOD
Y2Es-16,       ssel decomp plan exec,    res, graph,   pred class,     tpwss,  jmax, sparqlc,          NA,                     NA, false,   true, getty OAEI own
Y2Es-35,  sidx ssel decomp plan exec,    res, table,       tp uri,     tpwss,  excg,     tps,      python,                   FedX,  true,   true, LargeRDFBench FedBench FEASIBLE
Y2Es-44,                   sidx exec,    res, table,          uri,        NA,  even,     tps,          NA,                     NA, false,   true, LUBM LargeRDFBench
Y2Es-70,       sidx ssel decomp exec,    res, graph,         pred,     tpwss,  jmax,     tps,        java,                     NA, false,   true, own
Y2Es-74,            sidx ssel decomp,    res,    NA,     uri amem,     tpwss,  even,     tps,          NA,                     NA, false,   true, FedBench
Y2Es-92,       sidx ssel decomp exec,    res, table,         star,      deco,  star,     tps,        java,                  SANSA,  true,   true, Berlin   
Y2Es-134,           decomp plan exec,    res, table,           NA,      deco,   gjv,     tps,          NA,                 Lusail, false,   true, QFed LargeRDFBench LUBM
Y2Es-135,      sidx ssel decomp plan,    res, table,         star,      deco,  star,     tps,      python,                ANAPSID,  true,   true, Berlin FedBench LSLOD
knBK-3,             sidx ssel decomp,    res, table,         pred,     tpwss,  excg,     tps,        java,                     NA, false,   true, BIOOPENER
knbk-21,                 decomp plan,    res, table,           NA,     tpwss, prudx,     tps,          NA,                     NA, false,  false, NA
knBK-40,                        ssel,    res, table,         pred,     tpwss,  even,     tps,        node,              TPFserver, false,   true, FedBench
HteZ-7,        sidx ssel decomp plan,    res, table,    pred card,     tpwss,  excg,     tps,        java,     FedX SPLENDID DARQ,  true,   true, FedBench LargeRDFBench
knBK-49,                   plan exec,    res, table,           NA,     tpwss,    NA,     tps,        java,                     NA, false,   true, FedBench WatDiv
knBK-54,       sidx ssel decomp plan, fedsvc, table,    star priv,      deco,  star,     tps,      python,                ANAPSID, false,   true, Berlin
knBK-68,                         frm,    res, table,           NA,        NA,    NA,     tps,          js,                     NA,  true,   true, WatDiv
HteZ-11,                 decomp plan,    res, table,          map,       map,   map,  sparql,        java,                     NA,  true,   true, FedBench
knBK-162,           sidx ssel decomp, fedsvc, table,   pred class,     tpwss,  excg,  sparql,        java,                     NA, false,   true, own
knBK-171,                     decomp,    res, table,           NA,     tpwss, prudx,  sparql, java python,                   FedX,  true,   true, own WatDiv
knBK-175,                       exec,    res, table,           NA,        NA,    NA,     tps,     java js,         FedX TPFclient,  true,   true, WatDiv
knBK-179,      sidx ssel decomp plan,    res, table,         star,      deco,  star,     tps,        java, FedX SPLENDID SemaGrow,  true,   true, FedBench
knBK-202,                     decomp,     NA, table,           NA,        NA,    NA,     tps,          NA,                     NA, false,  false, NA
knBK-316,           sidx ssel decomp,    res, table,           tp,       all,  even,  sparql,          js,                     NA,  true,   true, Berlin, DBPediaWorkLoad 
knBK-331,                  sidx ssel,    res, table,    pred card,tpwss prun,  excg,     tps,        java,     FedX SPLENDID DARQ, false,   true, FedBench
knBK-334,                       sidx,     NA, table,   pred class,        NA,    NA,     tps,        java,              FedX DARQ, false,   true, FedBench
knBK-333,                ssel decomp,    res, table,           NA,     tpwss, reduc,  sparql,      python,                ANAPSID, false,   true, FedBench own
knBK-428,           decomp plan exec,    res, table,           NA,     tpwss, prudx,  sparql,        java,                     NA,  true,   true, FedBench
knBK-459,                  plan exec,    res, table,           NA,        NA,    NA,  sparql,          NA,                     NA, false,   true, FedBench own
knBK-455,           sidx ssel decomp,    res, table,         pred,tpwss prun, reduc,     tps, java python,           FedX ANAPSID,  true,   true, WatDiv own
knBK-460,                ssel decomp, fedsvc, table,         pred,     tpwss,  jmax,     tps,      python,                ANAPSID, false,  false, NA
HteZ-28,              ssel plan exec,    res, table,           tp, tpwss map,    NA,  sparql,          NA,                     NA, false,  false, NA
knBK-562,                  sidx ssel,    res, table,    pred card,tpwss prun,  excg,     tps,        java,     FedX SPLENDID DARQ, false,   true, FedBench
knBK-567,      ssel decomp plan exec,    res, table,           NA,     tpwss,   src,  sparql,        java,                     NA,  true,   true, FedBench
knBK-574,             sidx ssel plan,    res, table,           tp,     tpwss,    NA,     tps,        java,     FedX SPLENDID DARQ,  true,   true, FedBench
knBK-580,                     decomp,     NA, table,           NA,        NA,    NA,     tps,          NA,                     NA,    NA,     NA, NA
knBK-599,                ssel decomp,    res, table,          map,       map,   map,  sparql,          NA,                     NA, false,  false, NA
knBK-658,                  sidx ssel,    res, table,    pred amem,tpwss prun,    NA,  sparql,        java,     FedX SPLENDID DARQ, false,   true, own
knBK-660,                  sidx ssel,    res, table,tp class amem,     tpwss,    NA,  sparql,          NA,                     NA, false,   true, own
knBK-716,             sidx ssel plan,    res, graph,          map,       map,    NA,  sparql,        java,                     NA, false,   true, Berlin
knBK-749,           sidx decomp plan,    res, graph,         pred,     tpwss,  excg,  sparql,          NA,                     NA, false,  false, NA
knBK-789,           ssel decomp exec, fedsvc, table,           NA,      deco,  star,  sparql,        java,                     NA,  true,   true, own
HteZ-37,         sidx ssel plan exec,    res, graph,          map,       map,   map,  sparql,          NA,                     NA, false,   true, own
knBK-796,                ssel decomp,    res, table,         pred,     tpwss,  star,  sparql,      python,                ANAPSID, false,   true, FedBench
knBK-797,                ssel decomp, fedsvc, table,   pred class,tpwss prun,   src,  sparql,        java,                     NA,  true,  false, NA
knBK-801,           sidx ssel decomp,    res, table,         pred,     tpwss,  even,  sparql,        java,                     NA,  true,   true, own
knBK-830,           sidx ssel decomp,    res, table,           tp,     tpwss,  excg,  sparql,          NA,                     NA, false,   true, FedBench UOBM
knBK-872,           sidx ssel decomp,    res, table,       tp map,     tpwss,   map,  sparql,          NA,                     NA, false,   true, LUBM
knBK-897,           ssel decomp plan,    res, table,           NA,     tpwss,  excg,  sparql,        java,                     NA,  true,   true, own
knBK-920, sidx ssel decomp plan exec,    res, table,         pred,     tpwss,  even,  sparql,        java,                     NA, false,   true, own
knBK-923,           ssel decomp plan,    res, table,           NA, ask tpwss,  excg,  sparql,        java,                     NA,  true,   true, FedBench
knBK-953,           ssel decomp plan,    res, table,             , ask tpwss,  excg,  sparql,  scala java,                     NA,  true,   true, FedBench
knBK-1003,          sidx ssel decomp,    res, graph,           tp,     tpwss,   src,  sparql,        java,                     NA, false,  false, NA
knBK-1055,          sidx ssel decomp,    res, table,          map,       map,   map,     own,          NA,                     NA, false,  false, NA
knBK-1062,          sidx ssel decomp,    res, table,          map,       map,   map,  sparql,           c,                     NA,  true,  false, Berlin
knBK-1086,     sidx ssel decomp plan,    res, table,        class,     tpwss,  star,  sparql,        java,                     NA,  true,  false, NA
knBK-1104,     sidx ssel decomp plan,    res, table,    pred card,     tpwss,  excg,  sparql,        java,                     NA,  true,   true, own
