Inclusion:   Informational:  
FED          RDFPLUS                   
OBDA         NONRDF
REASON       STREAM          
             UPDATES
             UNCLEAR

Spurious:   Mismatching goals:   Methods:   Document:
NOTMANY     NOQUERY              COPY       ENGLISH
NOTFED      BENCHMARK            NOREASON   RETR
NOTAUTON    APP                  MATREASON  ACCESS
NOTRDF      IR                   DETAIL     DUP
NOTQUERY    NOFED                           EXT
NOTREASON   NOOBDA                          PROC
            SHARD
            LDQ
            NORDF
            EXPLAIN
            DISTR