id,tags
knBK-1,noquery notmany notauton
knBK-2,fed
knBK-3,fed rdfplus
knBK-4,app 
knBK-5,notfed notquery 
knBK-6,obda noquery
knBK-7,obda benchmark
knBK-8,notfed 
knBK-9,notauton notmany
knBK-10,fed app
knBK-11,obda unclear
knBK-12,fed nonrdf unclear
knBK-13,obda app
HteZ-1,noquery notmany
knBK-14,notmany
knBK-15,obda
knBK-16,obda reason
knBK-17,obda reason noquery
knBK-18,notauton notquery app
knBK-19,obda app
knBK-20,notreason notmany notauton noquery app
knBK-21,fed
knBK-22,obda
knBK-23,obda app
knBK-24,federation noquery
knBK-25,notreason notmany notauton
knBK-26,fed unclear
knBK-27,fed unclear
knBK-28,notmany
knBK-29,obda app
knBK-30,reason notmany
HteZ-2,notrdf app
knBK-31,obda app
knBK-32,obda
knBK-33,noquery
knBK-34,copy app
knBK-35,fed
knBK-36,notmany notauton
HteZ-3,noquery
knBK-37,fed rdfplus
knBK-38,fed
knBK-39,obda app
knBK-40,fed
HteZ-4,fed unclear
knBK-42,fed benchmark
HteZ-5,notmany 
knBK-41,fed benchmark
knBK-43,notauton 
HteZ-6,app
knBK-44,proc
knBK-45,fed app
knBK-46,notmany notauton
knBK-47,fed rdfplus
HteZ-7,fed
knBK-52,proc
knBK-53,proc
knBK-48,fed app
knBK-49,fed
knBK-50,fed
knBK-51,fed
knBK-54,fed
knBK-55,notauton notmany
knBK-58,notauton copy notquery
HteZ-8,notmany notauton
knBK-56,fed
knBK-59,proc
knBK-57,proc
knBK-60,obda noquery
knBK-62,notquery
knBK-61,fed
knBK-63,fed unclear
knBK-66,fed unclear
knBK-67,fed app
knBK-64,proc
knBK-69,fed rdfplus
knBK-68,fed
HteZ-9,noquery notreason 
knBK-70,fed
knBK-71,app
knBK-72,proc
knBK-73,copy
knBK-74,fed
knBK-75,obda
knBK-76,obda noquery
knBK-77,notfed
knBK-78,notfed
knBK-79,obda
knBK-80,obda app
knBK-81,notauton app
knBK-82,obda
knBK-83,obda nonrdf
knBK-84,obda noquery
knBK-85,obda benchmark
knBK-86,proc 
knBK-87,obda reason
knBK-88,obda
knBK-89,obda
knBK-91,proc
knBK-92,obda
knBK-93,obda app
knBK-94,obda noquery
knBK-95,obda app
knBK-96,obda app
knBK-98,proc
knBK-97,proc
knBK-99,obda benchmark
knBK-100,obda benchmark
knBK-101,obda benchmark
knBK-102,obda app benchmark
knBK-103,obda app benchmark
knBK-104,obda copy
knBK-107,obda noquery
knBK-105,app
knBK-106,obda unclear
knBK-108,obda app benchmark
knBK-109,obda notmany noquery
knBK-110,proc
knBK-111,obda reason
knBK-112,obda app
knBK-113,fed stream reason
knBK-114,notauton notquery
knBK-115,app notauton notquery
knBK-116,notquery notauton notmany
HteZ-10,app notmany
knBK-117,obda benchmark 
knBK-118,obda noquery
knBK-119,fed app
knBK-120,notauton notmany
knBK-121,obda
knBK-122,fed unclear
knBK-123,fed
HteZ-11,fed
knBK-124,fed
knBK-125,noquery app
knBK-126,noquery 
knBK-127,obda 
knBK-128,proc
knBK-129,obda
knBK-130,notquery notauton
knBK-131,fed
knBK-132,obda app
knBK-133,obda reason unclear
knBK-134,obda unclear
knBK-135,notquery
knBK-136,fed
knBK-137,proc
knBK-138,obda noquery
knBK-139,obda noquery app
knBK-140,notauton 
knBK-141,notauton notquery app
knBK-142,fed
knBK-143,fed rdfplus
knBK-144,proc
knBK-145,notmany
knBK-146,notauton notmany
knBK-147,fed
knBK-148,obda
knBK-149,obda
knBK-150,noquery app
knBK-151,noquery app
knBK-152,obda app
knBK-153,obda app
knBK-154,proc
knBK-155,fed
knBK-156,fed reason
knBK-157,noquery
knBK-158,notrdf
knBK-159,fed
knBK-160,obda
knBK-161,app noquery
knBK-162,fed 
knBK-163,obda noquery
knBK-164,proc
knBK-165,fed
knBK-166,notquery notauton 
knBK-167,notauton notreason 
knBK-168,fed app
knBK-169,obda
knBK-181,fed benchmark
HteZ-12,noquery notmany
knBK-170,fed
knBK-171,fed
knBK-172,fed
knBK-173,fed
knBK-174,noquery
knBK-176,fed app
knBK-175,fed
knBK-177,fed app
knBK-178,fed rdfplus
knBK-179,fed 
knBK-180,proc
knBK-183,noquery
knBK-182,fed
knBK-184,noquery
knBK-185,fed unclear
knBK-186,obda fed app
knBK-189,proc
knBK-187,fed
knBK-188,fed rdfplus
knBK-190,fed
knBK-191,proc
knBK-192,fed
knBK-193,fed nonrdf
knBK-194,fed obda
knBK-195,fed unclear
knBK-197,noquery
knBK-196,fed stream app
knBK-199,notauton notmany
knBK-198,fed rdfplus
knBK-200,proc
knBK-201,notfed
knBK-202,fed
knBK-205,notmany notauton
knBK-203,proc
knBK-204,fed ir
HteZ-13,notmany
knBK-206,noquery app notreason
knBK-207,proc
knBK-208,fed app
knBK-209,obda
knBK-211,notfed
knBK-210,obda
knBK-212,fed app
knBK-213,fed unclear
knBK-214,obda
knBK-215,obda unclear
knBK-216,obda
knBK-217,obda app
knBK-221,noquery
knBK-218,obda stream
knBK-219,obda
knBK-220,obda 
knBK-222,obda updates
knBK-223,obda
knBK-224,obda app
knBK-225,proc
knBK-226,obda rdfplus
knBK-227,obda noquery
knBK-228,obda app
knBK-229,obda noquery
knBK-230,obda
knBK-231,proc
knBK-232,obda noquery
knBK-233,obda app
knBK-234,proc
knBK-235,obda
knBK-236,obda
knBK-241,proc
knBK-237,notmany
knBK-239,proc
knBK-240,obda noquery
knBK-242,obda
knBK-243,obda noquery
knBK-244,fed app
knBK-245,noquery
knBK-246,obda app
knBK-247,obda app
knBK-248,ext
knBK-249,obda app
knBK-250,proc
knBK-256,proc
knBK-251,obda app
knBK-252,obda app
knBK-254,obda stream noquery app
knBK-253,obda app
knBK-255,obda app
knBK-257,obda reason
knBK-258,obda noquery notreason 
knBK-259,obda
knBK-264,proc
knBK-260,noobda
knBK-261,obda notreason app 
knBK-262,proc
knBK-263,proc
knBK-265,proc
knBK-266,obda app
knBK-267,obda noquery
knBK-268,obda noquery
knBK-269,fed nonrdf unclear
knBK-270,shard
knBK-271,fed unclear
knBK-272,fed unclear
knBK-273,obda unclear
knBK-274,notmany notquery
knBK-275,notauton notreason
knBK-276,notmany notquery notreason
knBK-277,obda unclear
knBK-278,obda app
knBK-279,fed app
knBK-280,obda unclear
knBK-281,fed ir
knBK-282,obda app
knBK-283,proc
knBK-284,fed unclear
knBK-285,noquery notreason
knBK-286,noobda
knBK-287,notquery
knBK-288,obda
knBK-289,fed
knBK-290,notquery
knBK-291,fed
knBK-292,notmany notauton
knBK-293,shard noquery
knBK-294,fed benchmark
knBK-295,notmany
knBK-296,obda reason
knBK-297,proc
knBK-298,obda reason rdfplus
HteZ-14,fed app
knBK-299,nofed
knBK-300,obda unclear
knBK-301,copy
knBK-302,nofed
knBK-303,obda app
knBK-304,obda noquery
knBK-305,fed app
knBK-306,fed app
knBK-307,fed reason app
knBK-308,obda reason
knBK-309,notmany
knBK-310,fed reason unclear
knBK-311,notmany notauton
knBK-312,fed
knBK-313,notauton notmany
knBK-314,notmany
knBK-315,notmany
HteZ-15,noquery
knBK-316,fed
knBK-317,noquery
knBK-318,notmany nofed
knBK-319,noquery notauton
knBK-320,notmany copy noquery
knBK-321,obda 
knBK-322,fed ir app
knBK-323,proc
knBK-331,fed 
knBK-349,nofed noquery
HteZ-16,notmany noquery
HteZ-17,notmany
knBK-334,fed
knBK-327,fed benchmark
knBK-324,noquery
knBK-325,fed unclear
knBK-326,fed
knBK-329,app notauton
knBK-328,fed
knBK-330,fed
knBK-332,fed benchmark
knBK-333,fed
HteZ-18,noquery
knBK-335,proc
knBK-336,copy
HteZ-19,notmany
knBK-337,nofed
knBK-338,app
knBK-339,fed
knBK-340,proc
HteZ-20,noquery
knBK-341,fed
knBK-343,copy notauton
knBK-342,noquery
knBK-344,fed unclear
knBK-345,notauton nofed
knBK-346,proc
knBK-347,fed unclear
knBK-350,notmany
HteZ-21,nofed ldq
knBK-348,fed app unclear
knBK-364,copy noquery
HteZ-22,nofed
knBK-351,fed unclear
knBK-353,noquery
knBK-352,nofed
knBK-354,proc
knBK-355,obda
knBK-356,ldq nofed
knBK-357,notmany
knBK-358,noquery app
knBK-359,noquery
knBK-360,fed
knBK-361,nofed noquery
knBK-362,shard
knBK-363,proc
knBK-365,stream fed reason
knBK-366,obda benchmark
knBK-367,proc
knBK-368,nofed app
knBK-369,proc
knBK-370,obda app noquery
knBK-371,noquery
knBK-372,proc
knBK-373,obda app noquery
knBK-374,proc
knBK-375,nofed benchmark
knBK-376,obda app
knBK-377,obda app
knBK-378,obda noquery
knBK-380,obda noquery
knBK-379,obda nonrdf
knBK-381,obda noquery
knBK-382,obda
knBK-383,obda
knBK-384,obda noquery
knBK-385,proc
knBK-386,obda noquery
knBK-387,obda unclear
knBK-388,obda
knBK-389,obda noquery
knBK-390,obda
knBK-392,obda rdfplus
knBK-391,obda noquery
knBK-393,obda nonrdf
knBK-394,notfed
knBK-395,noobda
knBK-396,proc
knBK-397,obda
knBK-398,obda app
knBK-399,obda noquery
knBK-400,proc
knBK-401,obda
knBK-402,obda notreason app
knBK-403,obda
knBK-404,noobda
knBK-405,obda unclear
knBK-406,obda noquery
knBK-407,obda noquery
knBK-410,obda reason 
knBK-408,obda unclear
knBK-409,obda app
knBK-411,obda
knBK-412,proc
knBK-413,obda unclear
knBK-414,obda noquery app
knBK-415,obda benchmark
knBK-416,obda stream unclear
knBK-417,obda noquery
knBK-418,obda benchmark
knBK-419,proc
HteZ-23,notmany
knBK-420,noquery
knBK-421,notauton noquery
knBK-422,noquery
knBK-423,fed reason rdfplus
knBK-424,fed unclear
knBK-425,obda app
knBK-426,noquery
knBK-427,noquery reason
knBK-428,fed
knBK-429,obda reason 
knBK-430,proc
knBK-431,fed
knBK-432,obda app
knBK-433,obda rdfplus
knBK-434,obda reason
knBK-435,obda noquery
knBK-436,noobda
knBK-437,obda app
knBK-438,obda unclear
knBK-439,noquery notauton
knBK-440,noobda
knBK-441,ldq notreason
knBK-442,fed noquery
knBK-443,proc
knBK-444,noquery notmany
knBK-445,ext
knBK-446,obda
knBK-447,obda unclear
knBK-448,obda copy
knBK-449,obda noquery
knBK-450,noquery copy
knBK-451,obda reason
knBK-452,obda copy
knBK-459,fed
knBK-476,fed noquery app
knBK-479,fed noquery app
HteZ-24,notreason noquery
HteZ-25,noquery
knBK-453,proc
knBK-454,proc
knBK-456,noquery app
knBK-455,fed
knBK-457,fed
knBK-458,fed noquery
knBK-461,copy
knBK-460,fed
knBK-462,fed
knBK-464,copy
knBK-466,copy notauton
knBK-463,ldq
HteZ-26,notmany notreason
knBK-465,proc
knBK-467,noquery
knBK-468,noquery
knBK-469,notmany
knBK-473,notmany
knBK-470,fed ir
knBK-471,fed
knBK-472,proc
knBK-474,proc
knBK-475,obda nonrdf
knBK-477,noquery
knBK-480,copy
HteZ-27,notmany
knBK-478,fed noquery
knBK-482,notmany
knBK-483,notauton
knBK-481,fed benchmark
knBK-484,fed
knBK-485,fed
knBK-486,noquery
knBK-487,fed unclear
knBK-489,notauton
knBK-488,notfed notreason
knBK-490,noquery updates
knBK-491,notmany notauton
knBK-492,copy updates
knBK-493,noquery notmany
knBK-494,noquery
knBK-495,fed reason
knBK-497,notreason ir notmany
knBK-498,noquery
knBK-499,proc
knBK-500,noquery
knBK-501,notmany notfed
knBK-496,obda noquery
knBK-503,obda
knBK-504,obda
knBK-505,obda rdfplus
knBK-506,obda unclear
knBK-507,obda benchmark
knBK-508,obda
knBK-509,obda noquery
knBK-510,obda noquery
knBK-511,obda noquery
knBK-512,obda noquery
knBK-514,obda app
knBK-513,obda benchmark
knBK-515,obda unclear
knBK-516,obda updates unclear
knBK-517,obda stream
knBK-518,obda stream
knBK-519,obda app
knBK-520,obda unclear
knBK-521,obda benchmark
knBK-522,obda noquery
knBK-523,obda unclear
knBK-524,obda app
knBK-525,obda noquery
knBK-529,obda
knBK-526,obda noquery
knBK-527,obda benchmark
knBK-528,obda unclear
knBK-533,obda noquery
knBK-530,obda app
knBK-531,obda
knBK-532,proc
knBK-534,obda
knBK-535,obda benchmark
knBK-536,obda noquery
knBK-537,obda noquery
knBK-538,obda app
knBK-539,proc
knBK-540,obda app
knBK-541,copy updates
knBK-542,proc
knBK-543,proc
knBK-544,fed benchmark
knBK-545,fed
knBK-546,fed unclear
knBK-547,copy noquery
knBK-548,obda  copy notreason 
knBK-549,noquery
knBK-550,notmany notauton
knBK-551,notauton noquery
knBK-552,obda notfed notreason
HteZ-28,fed
knBK-553,notquery notauton
knBK-554,fed
knBK-557,fed reason 
HteZ-29,fed noquery
HteZ-30,noquery
knBK-555,noquery
knBK-556,copy
HteZ-31,proc
knBK-558,fed
knBK-559,fed
knBK-560,fed unclear
knBK-561,fed 
knBK-563,noquery
knBK-562,fed
knBK-564,notauton
knBK-565,proc
knBK-568,proc
knBK-566,proc
knBK-567,fed
knBK-572,notauton
knBK-569,fed
knBK-570,fed
knBK-573,fed noquery
knBK-574,fed
knBK-575,fed updates
knBK-576,noquery
knBK-578,notauton
knBK-577,fed
knBK-579,fed
knBK-580,fed
HteZ-32,notmany noquery
knBK-582,notmany app
knBK-585,notauton noquery
knBK-583,proc
knBK-581,fed noobda noquery 
knBK-587,nordf notauton
knBK-588,notauton notquery
knBK-586,fed
knBK-589,proc
knBK-591,nofed noquery
knBK-592,notrdf
knBK-593,obda nonrdf unclear
knBK-594,obda
knBK-597,copy noquery app
knBK-595,ldq
knBK-596,fed unclear
knBK-598,fed unclear
knBK-599,fed
knBK-600,notfed
knBK-601,fed
knBK-602,fed unclear
knBK-603,ir
knBK-604,fed unclear
knBK-605,fed
knBK-606,obda
knBK-607,notmany notfed
knBK-608,obda unclear
knBK-609,nofed noquery
knBK-610,obda noquery
knBK-611,obda noquery
knBK-612,obda stream reason 
knBK-613,obda reason
knBK-614,obda benchmark
knBK-615,obda noquery
knBK-617,obda noquery
knBK-618,obda noquery
knBK-629,obda
knBK-619,obda stream
knBK-621,proc
knBK-622,obda reason
knBK-623,obda 
knBK-624,obda noquery
knBK-625,obda unclear
knBK-626,noobda
knBK-628,obda benchmark
knBK-630,proc
knBK-631,obda
knBK-632,obda noquery
knBK-633,obda noquery
knBK-634,noobda
knBK-635,noquery
knBK-637,obda app
knBK-645,noobda noquery
knBK-644,noobda noquery
knBK-638,proc
knBK-639,noobda
knBK-640,noobda noquery
knBK-642,obda rdfplus
knBK-643,obda unclear
knBK-646,proc
knBK-647,obda app
knBK-648,noobda
knBK-649,obda unclear
knBK-650,proc
knBK-651,noobda
knBK-652,obda unclear
knBK-653,obda fed noquery
knBK-654,obda noquery
knBK-666,fed unclear
knBK-655,notmany
knBK-656,notmany
knBK-657,copy noquery
knBK-658,fed
knBK-659,fed
knBK-661,notmany copy
knBK-660,fed obda reason
knBK-662,fed rdfplus
knBK-663,fed nonrdf
knBK-664,fed
knBK-665,fed app
HteZ-33,notmany
knBK-667,fed obda reason
knBK-668,noquery
knBK-669,notmany
knBK-670,noquery
knBK-671,notfed notmany
knBK-672,obda unclear
knBK-673,obda
knBK-674,noobda noquery
knBK-675,obda noquery
knBK-676,noquery
knBK-677,obda benchmark
knBK-681,proc
knBK-679,noobda noquery
knBK-680,obda noquery
knBK-682,noobda noquery
knBK-683,obda noquery
knBK-684,obda app
knBK-686,obda
knBK-685,noquery
knBK-687,noquery
knBK-688,obda app
knBK-689,obda
knBK-690,obda
knBK-692,copy
knBK-691,obda 
knBK-693,obda reason unclear
knBK-694,noobda
knBK-695,notmany
knBK-696,fed
knBK-697,fed
knBK-698,noquery
knBK-699,obda app
knBK-700,notreason nofed
knBK-701,notmany
knBK-702,fed app
knBK-703,obda
knBK-704,proc
knBK-705,notfed
knBK-706,fed app
knBK-707,fed unclear
knBK-708,obda
knBK-709,proc
knBK-710,obda
knBK-711,obda unclear
knBK-712,notmany
knBK-713,noquery
knBK-714,fed noquery
knBK-715,ir notfed
knBK-716,fed 
HteZ-34,updates noquery
knBK-717,fed obda
knBK-718,notmany noquery
knBK-719,fed app
knBK-720,obda app
knBK-721,obda noquery
knBK-722,obda
knBK-723,fed shard
knBK-724,notfed
knBK-725,notmany
knBK-726,obda
knBK-727,proc
knBK-728,fed app
knBK-729,obda noquery
knBK-730,notmany
knBK-731,fed noquery
knBK-732,obda nonrdf
knBK-733,obda app
knBK-734,notauton notmany
knBK-735,fed
HteZ-35,fed noquery
knBK-736,obda
knBK-737,obda noquery
HteZ-36,ir
knBK-738,fed app
knBK-739,notauton notmany notquery
knBK-740,proc
knBK-741,obda noquery
knBK-742,notauton app
knBK-743,notauton notmany
knBK-744,fed noquery
knBK-747,fed
knBK-745,fed app
knBK-746,fed app
knBK-748,fed 
knBK-749,fed
knBK-750,fed noquery
knBK-751,fed reason
knBK-752,fed unclear
knBK-753,fed noquery
knBK-754,fed app
knBK-755,fed app
knBK-756,proc
knBK-757,proc
knBK-758,notmany
knBK-759,obda
knBK-760,obda noquery
knBK-761,obda unclear
knBK-762,obda noquery
knBK-763,obda noquery
knBK-764,obda reason 
knBK-765,obda app
knBK-766,obda ir
knBK-767,obda noquery
knBK-768,obda stream
knBK-769,notmany
knBK-770,obda stream noquery
knBK-678,noobda noquery
knBK-772,obda unclear
knBK-773,proc
knBK-774,proc
knBK-775,obda
knBK-776,proc
knBK-777,obda app
knBK-778,obda
knBK-779,proc
knBK-780,obda reason
knBK-781,obda
knBK-782,proc
knBK-783,obda noquery
knBK-784,obda
knBK-785,fed noquery
knBK-786,fed app noquery
knBK-787,fed app
knBK-788,fed unclear
knBK-789,fed
knBK-790,fed
knBK-791,obda app
knBK-792,fed
knBK-793,obda noquery
knBK-794,notmany
knBK-795,fed
HteZ-37,fed unclear
HteZ-38,notmany
knBK-796,fed
knBK-797,fed
knBK-798,noquery notauton
knBK-799,copy noquery
knBK-800,proc
knBK-801,fed reason
knBK-802,noquery
knBK-803,fed
knBK-804,fed
knBK-805,fed noquery
knBK-806,notmany
knBK-807,obda reason 
knBK-808,fed app
knBK-809,notfed
knBK-810,obda 
knBK-811,obda
knBK-812,obda noquery
knBK-813,proc
knBK-814,noobda reason
knBK-815,obda
knBK-816,obda noquery
knBK-817,obda
knBK-818,obda noquery
knBK-819,obda reason 
knBK-820,obda unclear
knBK-822,noobda reason
knBK-821,obda app
knBK-823,obda app
knBK-824,obda app
knBK-825,notmany noquery
knBK-826,notmany
knBK-827,fed benchmark
knBK-828,fed benchmark
knBK-829,obda noquery
knBK-830,fed
knBK-831,obda benchmark
knBK-832,obda reason
knBK-833,notquery copy
knBK-834,fed unclear
knBK-835,noobda
knBK-836,noquery
knBK-837,fed
knBK-838,proc
knBK-839,obda reason unclear
knBK-840,notquery
knBK-841,notmany
knBK-842,notmany
knBK-844,obda reason unclear
knBK-843,fed unclear
knBK-845,fed app
knBK-846,notmany notauton
knBK-847,notfed notauton
knBK-848,obda
knBK-849,noobda
knBK-850,notauton
knBK-851,fed
knBK-852,notquery copy
knBK-853,notfed
knBK-854,notquery
knBK-855,fed app
knBK-856,copy app
knBK-857,fed app
knBK-858,notmany ir
knBK-859,notmany
knBK-860,fed
knBK-861,notquery
knBK-862,notquery
knBK-863,fed unclear
knBK-864,nofed
knBK-865,fed app
knBK-866,obda fed
knBK-867,fed app
knBK-868,notfed
knBK-869,fed benchmark
knBK-870,noquery
knBK-871,notmany notfed
knBK-872,fed
knBK-875,notmany
knBK-873,fed
knBK-874,notfed notmany
knBK-876,obda
knBK-877,fed
knBK-878,obda
knBK-879,notfed
knBK-880,notfed
knBK-881,obda
knBK-882,obda reason
knBK-883,obda benchmark
knBK-884,proc
knBK-885,obda app
knBK-886,noobda reason
knBK-887,proc
knBK-888,obda app
knBK-889,proc
knBK-890,obda reason unclear
knBK-891,obda reason unclear
knBK-892,obda benchmark
knBK-894,fed 
knBK-895,obda
knBK-896,notmany notauton
knBK-897,fed
knBK-898,fed app
knBK-900,notfed
knBK-899,notfed
knBK-901,notauton
knBK-902,notmany
knBK-904,notmany
knBK-903,fed unclear
knBK-905,notfed
knBK-906,proc
knBK-907,fed
knBK-908,obda reason
knBK-909,obda
HteZ-39,ir notfed
knBK-910,obda
knBK-911,obda
knBK-912,obda unclear
knBK-913,obda
knBK-914,obda reason unclear
knBK-915,obda reason unclear
knBK-916,obda unclear
knBK-917,proc
knBK-918,obda reason unclear
knBK-919,copy
knBK-920,fed
HteZ-40,app notquery
knBK-921,obda noquery
knBK-922,fed
knBK-923,fed
knBK-924,fed benchmark
knBK-925,obda noquery
knBK-926,obda unclear
knBK-927,fed unclear
knBK-928,fed noquery
knBK-929,fed
knBK-930,fed
knBK-931,fed
knBK-932,fed unclear
knBK-933,noquery
knBK-934,noquery
knBK-935,obda 
knBK-936,notquery
knBK-937,fed
knBK-938,notquery
knBK-939,notquery
knBK-940,shard
knBK-941,fed reason
knBK-942,obda
knBK-943,fed
knBK-944,obda
knBK-945,notquery
knBK-946,notfed
knBK-947,obda ir
knBK-948,notquery
knBK-949,fed
knBK-950,obda 
knBK-951,fed unclear
knBK-952,fed unclear
knBK-953,fed
knBK-954,proc
knBK-955,fed
knBK-956,fed app
knBK-957,fed
knBK-958,obda noquery
knBK-959,obda reason
knBK-960,fed
knBK-961,notfed notmany
knBK-962,noquery
knBK-963,fed
knBK-964,fed
knBK-965,noquery
knBK-966,fed unclear
knBK-967,fed
knBK-968,fed app
knBK-969,obda
knBK-971,reason fed noquery
knBK-970,fed benchmark
knBK-972,fed
knBK-973,noquery
HteZ-41,shard
knBK-974,notfed ir
knBK-975,notauton
knBK-976,obda
knBK-977,obda
knBK-978,notfed
knBK-979,fed updates
knBK-980,obda noquery
knBK-981,obda benchmark
knBK-982,obda reason
knBK-983,obda
knBK-984,obda noquery
knBK-985,obda noquery updates
knBK-986,proc
knBK-987,proc
knBK-989,notmany
knBK-990,fed benchmark
knBK-991,proc
knBK-992,obda unclear
knBK-993,notmany
knBK-994,obda reason
knBK-995,obda noquery
HteZ-42,notmany notquery
knBK-996,obda unclear
knBK-997,notmany notfed
knBK-998,notmany
knBK-999,fed rdfplus
knBK-1000,fed ir
knBK-1001,notmany notfed
HteZ-43,notmany notauton
knBK-1002,notmany
knBK-1003,fed
knBK-1004,notfed
knBK-1005,notfed
knBK-1006,notquery notreason app
knBK-1007,notmany
knBK-1008,obda ir
knBK-1009,proc
knBK-1010,fed unclear
knBK-1011,obda noquery
knBK-1012,notquery
knBK-1013,obda
knBK-1014,notmany
knBK-1015,obda noquery
knBK-1016,noquery
knBK-1017,fed
knBK-1018,notquery
knBK-1019,notmany
knBK-1020,notfed notquery
knBK-1021,copy
knBK-1022,fed unclear
knBK-1023,obda unclear
knBK-1024,proc
knBK-1025,obda unclear
knBK-1026,noquery app
knBK-1027,fed app
knBK-1028,shard
knBK-1029,copy
knBK-1030,fed reason noquery
knBK-1031,fed app
knBK-1032,ldq
knBK-1033,ir
knBK-1034,obda ir
knBK-1035,notmany
knBK-1036,obda reason
knBK-1037,fed nonrdf
knBK-1038,obda 
knBK-1039,fed app
knBK-1040,obda app
knBK-1041,proc
knBK-1042,obda noquery
knBK-1043,obda noquery
knBK-1044,fed nonrdf
knBK-1045,obda
knBK-1046,obda ir
knBK-1047,obda app
knBK-1048,obda noquery
knBK-1049,noobda
knBK-1050,proc
knBK-1051,obda
knBK-1052,notmany
knBK-1053,fed app
knBK-1054,obda noquery
knBK-1055,fed rdfplus
knBK-1056,fed
knBK-1057,fed app
knBK-1058,proc
knBK-1059,fed
knBK-1060,fed reason unclear
knBK-1061,fed
knBK-1063,notmany
knBK-1064,noquery notreason notauton
knBK-1065,fed unclear
knBK-1066,notmany
knBK-1067,fed app
knBK-1068,nofed
knBK-1069,obda
knBK-1070,notmany
knBK-1071,obda 
knBK-1072,notquery notmany
knBK-1073,fed ir
knBK-1074,notmany
knBK-1075,obda noquery explain
knBK-1076,notmany
knBK-1077,proc
knBK-1078,notmany notfed
knBK-1079,obda 
knBK-1080,notmany
HteZ-44,fed
HteZ-45,fed
knBK-1081,distr
knBK-1082,fed reason
knBK-1083,notquery
knBK-1085,notquery
knBK-1084,fed reason
knBK-1086,fed
knBK-1087,notfed
knBK-1088,notfed
HteZ-46,notmany
knBK-1089,fed
knBK-1090,fed
knBK-1091,fed unclear
knBK-1092,obda app
knBK-1093,obda unclear
knBK-1094,notmany notauton
knBK-1095,fed noquery
knBK-1096,noquery
knBK-1097,fed reason
knBK-1098,notmany
knBK-1099,obda 
knBK-1100,notquery
knBK-1101,obda 
knBK-1102,fed
knBK-1103,notmany notfed
knBK-1104,fed 
knBK-1105,ir
knBK-1106,notquery
knBK-1107,notquery
knBK-1108,fed reason
knBK-1109,notquery
knBK-1110,notquery
knBK-1111,notfed
knBK-1112,notmany
knBK-1113,fed unclear
knBK-1114,fed
knBK-1115,obda reason
HteZ-47,proc
knBK-1116,obda unclear
knBK-1117,ir
knBK-1118,fed noquery
knBK-1119,noquery
HteZ-48,noquery
knBK-1120,ir
knBK-1122,noquery
knBK-1121,fed distr copy
knBK-1123,obda noquery
knBK-1124,notmany
knBK-1125,fed 
knBK-1126,proc
knBK-1127,obda
knBK-1129,fed unclear
knBK-1130,fed noquery
knBK-1062,fed unclear
knBK-1132,notmany
knBK-1133,proc
knBK-1134,proc
knBK-1136,proc
knBK-1135,obda 
knBK-1137,obda reason
knBK-1138,obda ir
knBK-1139,obda unclear
knBK-1140,obda noquery
knBK-1141,obda
knBK-1142,obda
knBK-1143,obda unclear
HteZ-49,notquery
knBK-1144,obda
knBK-1145,notfed
knBK-1146,fed unclear
knBK-1147,notquery
knBK-1148,notquery
knBK-1149,fed app
knBK-1150,notquery
knBK-1151,proc
knBK-1152,notquery
knBK-1153,obda unclear
knBK-1154,notfed notmany
knBK-1155,notmany
knBK-1156,fed unclear
knBK-1157,proc
knBK-1159,obda
knBK-1160,obda
knBK-1161,fed app
knBK-1162,obda
knBK-1163,obda reason noquery
knBK-1164,obda unclear
knBK-1165,notquery
knBK-1166,notquery
HteZ-50,notquery
knBK-1167,fed app
knBK-1168,notfed distr
knBK-1169,fed app
knBK-1170,notfed notmany
knBK-1171,proc
knBK-1172,notfed notmany
knBK-1173,obda
knBK-1174,obda app
knBK-1175,notmany
knBK-1176,notmany
knBK-1178,notauton notquery
knBK-1177,fed
knBK-1179,proc
knBK-1180,proc
knBK-1181,obda
knBK-1182,reason noquery
knBK-1183,proc
knBK-1184,notmany notfed
knBK-1185,proc
knBK-1186,obda
knBK-1187,obda
knBK-1188,fed
knBK-1189,notfed
knBK-1190,notmany notfed
knBK-1191,obda unclear
knBK-1192,notquery
knBK-1193,notfed
knBK-1194,notfed
knBK-1195,notmany
knBK-1196,notrdf
knBK-1197,proc
knBK-1198,distr
HteZ-51,notquery
knBK-1199,fed unclear
knBK-1200,obda
knBK-1201,ir
knBK-1202,noquery
knBK-1203,obda
knBK-1204,notquery
knBK-1205,notquery
knBK-1206,obda unclear
knBK-1207,notmany
knBK-1208,ir
knBK-1209,obda unclear
knBK-1210,obda
knBK-1211,ir
knBK-1212,notquery
knBK-1213,notquery
knBK-1214,notquery
knBK-1215,proc
knBK-1216,obda
knBK-1217,fed reason
knBK-1218,fed
knBK-1219,fed rdfplus
knBK-1220,notquery
knBK-1221,copy
knBK-1222,fed unclear
knBK-1223,fed
knBK-1224,obda fed
knBK-1225,ir notmany notfed
knBK-1226,copy
knBK-1227,notfed notquery
knBK-1228,proc
knBK-1229,proc
knBK-1230,fed
knBK-1231,ir
knBK-1232,obda
knBK-1233,proc
knBK-1234,fed
knBK-1235,proc
HteZ-52,fed unclear
knBK-1236,fed unclear
knBK-1237,notrdf
knBK-1238,obda
HteZ-53,proc
knBK-1239,fed unclear
knBK-1240,ir
HteZ-54,proc
knBK-1241,copy notauton
