id,decision
knBK-3,
knBK-37,ext
knBK-15,
knBK-711,
knBK-22,
knBK-148,
knBK-40,
knBK-291,dup
HteZ-7,
knBK-182,ext
knBK-74,
knBK-143,
knBK-79,
knBK-79,
knBK-83,
knBK-379,
knBK-393,ext
knBK-111,
knBK-321,
knBK-429,
knBK-121,
knBK-169,ext
knBK-127,
knBK-520,ext
knBK-129,ext
knBK-411,
knBK-1160,
knBK-131,
knBK-328,ext
knBK-920,
knBK-136,
knBK-601,
knBK-1156,
knBK-142,
knBK-147,
knBK-159,
knBK-289,
knBK-162,
knBK-170,ext
knBK-165,
knBK-560,ext
knBK-171,
knBK-172,
knBK-175,
knBK-455,
knBK-178,ext
knBK-188,
knBK-185,access
knBK-344,
knBK-187,
knBK-190,ext
knBK-216,
knBK-223,
knBK-882,
knBK-908,
knBK-982,
knBK-1023,ext
knBK-1036,
knBK-1101,
knBK-1127,
knBK-1127,
knBK-219,
knBK-503,
knBK-508,
knBK-606,ext
knBK-673,
knBK-781,
knBK-226,
knBK-433,
knBK-505,
knBK-515,
knBK-516,
knBK-528,
knBK-642,
knBK-672,
knBK-815,
knBK-310,
knBK-605,
knBK-1093,
knBK-331,
knBK-561,
knBK-562,
knBK-658,
knBK-334,
knBK-577,
knBK-339,
knBK-347,ext
knBK-351,
knBK-485,ext
knBK-387,
knBK-403,ext
knBK-460,
knBK-796,
knBK-496,
knBK-496,
knBK-518,
knBK-612,
knBK-529,
knBK-689,ext
knBK-722,ext
knBK-890,ext
knBK-570,
knBK-570,
knBK-574,
knBK-923,
knBK-575,
knBK-575,
knBK-575,
knBK-575,
knBK-575,
knBK-575,
knBK-602,
knBK-1223,
knBK-629,
knBK-819,
knBK-619,
knBK-619,
knBK-652,
knBK-926,
knBK-996,
knBK-1025,
knBK-664,
HteZ-37,
knBK-686,
knBK-820,ext
knBK-690,
knBK-775,ext
knBK-784,ext
knBK-693,
knBK-693,
knBK-697,
knBK-922,
knBK-736,
knBK-759,ext
knBK-747,
knBK-837,
knBK-955,ext
knBK-832,
knBK-912,ext2
knBK-834,
knBK-952,
knBK-844,
knBK-915,
knBK-860,
knBK-930,ext
knBK-972,ext
knBK-907,
knBK-1129,
knBK-910,
knBK-911,ext
knBK-913,dup
knBK-914,
knBK-992,
knBK-1099,
knBK-1037,access
knBK-1044,
knBK-1062,
knBK-1062,
knBK-1177,ext
knBK-1187,ext
knBK-1224,
knBK-1222,
knBK-1234,ext
knBK-1232,
knBK-1238,ext
